%YAML 1.1
%TAG !u! tag:unity3d.com,2011:
--- !u!114 &11400000
MonoBehaviour:
  m_ObjectHideFlags: 0
  m_PrefabParentObject: {fileID: 0}
  m_PrefabInternal: {fileID: 0}
  m_GameObject: {fileID: 0}
  m_Enabled: 1
  m_EditorHideFlags: 0
  m_Script: {fileID: 11500000, guid: 4ff27a4c050c32c4f938fb613d20c7dc, type: 3}
  m_Name: EnemyAttackSettings2
  m_EditorClassIdentifier: 
  Damage: 2
  CoolDawn: 4
  DistanceAttack: 3
