%YAML 1.1
%TAG !u! tag:unity3d.com,2011:
--- !u!114 &11400000
MonoBehaviour:
  m_ObjectHideFlags: 0
  m_PrefabParentObject: {fileID: 0}
  m_PrefabInternal: {fileID: 0}
  m_GameObject: {fileID: 0}
  m_Enabled: 1
  m_EditorHideFlags: 0
  m_Script: {fileID: 11500000, guid: 9d10ef8c2e31f234ba8f1907c325bfc1, type: 3}
  m_Name: EnemySettings2
  m_EditorClassIdentifier: 
  Health: 10
  Defence: 0
  MoveSpeed: 5
  RotateSpeed: 120
